digraph "charts.h"
{
 // LATEX_PDF_SIZE
  bgcolor="transparent";
  edge [fontname=Helvetica,fontsize=10,labelfontname=Helvetica,labelfontsize=10];
  node [fontname=Helvetica,fontsize=10,shape=box,height=0.2,width=0.4];
  Node1 [id="Node000001",label="charts.h",height=0.2,width=0.4,color="gray40", fillcolor="grey60", style="filled", fontcolor="black",tooltip="Plik nagłówkowy klasy Charts."];
  Node1 -> Node2 [id="edge5_Node000001_Node000002",dir="back",color="steelblue1",style="solid",tooltip=" "];
  Node2 [id="Node000002",label="charts.cpp",height=0.2,width=0.4,color="grey40", fillcolor="white", style="filled",URL="$charts_8cpp.html",tooltip="Implementacja klasy Charts, która odpowiada za wyświetlanie wykresów temperatury i natężenia światła."];
  Node1 -> Node3 [id="edge6_Node000001_Node000003",dir="back",color="steelblue1",style="solid",tooltip=" "];
  Node3 [id="Node000003",label="mainwindow.h",height=0.2,width=0.4,color="grey40", fillcolor="white", style="filled",URL="$mainwindow_8h.html",tooltip="Plik nagłówkowy klasy MainWindow."];
  Node3 -> Node4 [id="edge7_Node000003_Node000004",dir="back",color="steelblue1",style="solid",tooltip=" "];
  Node4 [id="Node000004",label="main.cpp",height=0.2,width=0.4,color="grey40", fillcolor="white", style="filled",URL="$main_8cpp.html",tooltip=" "];
  Node3 -> Node5 [id="edge8_Node000003_Node000005",dir="back",color="steelblue1",style="solid",tooltip=" "];
  Node5 [id="Node000005",label="mainwindow.cpp",height=0.2,width=0.4,color="grey40", fillcolor="white", style="filled",URL="$mainwindow_8cpp.html",tooltip="Plik z definicjami metod klasy MainWindow Plik zawiera definicje metod klasy MainWindow,..."];
}
