digraph "QCPItemBracket"
{
 // LATEX_PDF_SIZE
  bgcolor="transparent";
  edge [fontname=Helvetica,fontsize=10,labelfontname=Helvetica,labelfontsize=10];
  node [fontname=Helvetica,fontsize=10,shape=box,height=0.2,width=0.4];
  Node1 [id="Node000001",label="QCPItemBracket",height=0.2,width=0.4,color="gray40", fillcolor="grey60", style="filled", fontcolor="black",tooltip="A bracket for referencing/highlighting certain parts in the plot."];
  Node2 -> Node1 [id="edge38_Node000001_Node000002",dir="back",color="steelblue1",style="solid",tooltip=" "];
  Node2 [id="Node000002",label="QCPAbstractItem",height=0.2,width=0.4,color="gray40", fillcolor="white", style="filled",URL="$class_q_c_p_abstract_item.html",tooltip="The abstract base class for all items in a plot."];
  Node3 -> Node2 [id="edge39_Node000002_Node000003",dir="back",color="steelblue1",style="solid",tooltip=" "];
  Node3 [id="Node000003",label="QCPLayerable",height=0.2,width=0.4,color="gray40", fillcolor="white", style="filled",URL="$class_q_c_p_layerable.html",tooltip="Base class for all drawable objects."];
  Node4 -> Node3 [id="edge40_Node000003_Node000004",dir="back",color="steelblue1",style="solid",tooltip=" "];
  Node4 [id="Node000004",label="QObject",height=0.2,width=0.4,color="gray40", fillcolor="white", style="filled",tooltip=" "];
  Node5 -> Node3 [id="edge41_Node000003_Node000005",dir="back",color="darkorchid3",style="dashed",tooltip=" ",label=" mParentPlot",fontcolor="grey" ];
  Node5 [id="Node000005",label="QCustomPlot",height=0.2,width=0.4,color="gray40", fillcolor="white", style="filled",URL="$class_q_custom_plot.html",tooltip="The central class of the library. This is the QWidget which displays the plot and interacts with the ..."];
  Node6 -> Node5 [id="edge42_Node000005_Node000006",dir="back",color="steelblue1",style="solid",tooltip=" "];
  Node6 [id="Node000006",label="QWidget",height=0.2,width=0.4,color="gray40", fillcolor="white", style="filled",tooltip=" "];
  Node7 -> Node5 [id="edge43_Node000005_Node000007",dir="back",color="darkorchid3",style="dashed",tooltip=" ",label=" xAxis\nxAxis2\nyAxis\nyAxis2",fontcolor="grey" ];
  Node7 [id="Node000007",label="QCPAxis",height=0.2,width=0.4,color="gray40", fillcolor="white", style="filled",URL="$class_q_c_p_axis.html",tooltip="Manages a single axis inside a QCustomPlot."];
  Node3 -> Node7 [id="edge44_Node000007_Node000003",dir="back",color="steelblue1",style="solid",tooltip=" "];
  Node8 -> Node7 [id="edge45_Node000007_Node000008",dir="back",color="darkorchid3",style="dashed",tooltip=" ",label=" mAxisRect",fontcolor="grey" ];
  Node8 [id="Node000008",label="QCPAxisRect",height=0.2,width=0.4,color="gray40", fillcolor="white", style="filled",URL="$class_q_c_p_axis_rect.html",tooltip="Holds multiple axes and arranges them in a rectangular shape."];
  Node9 -> Node8 [id="edge46_Node000008_Node000009",dir="back",color="steelblue1",style="solid",tooltip=" "];
  Node9 [id="Node000009",label="QCPLayoutElement",height=0.2,width=0.4,color="gray40", fillcolor="white", style="filled",URL="$class_q_c_p_layout_element.html",tooltip="The abstract base class for all objects that form the layout system."];
  Node3 -> Node9 [id="edge47_Node000009_Node000003",dir="back",color="steelblue1",style="solid",tooltip=" "];
  Node10 -> Node9 [id="edge48_Node000009_Node000010",dir="back",color="darkorchid3",style="dashed",tooltip=" ",label=" mParentLayout",fontcolor="grey" ];
  Node10 [id="Node000010",label="QCPLayout",height=0.2,width=0.4,color="gray40", fillcolor="white", style="filled",URL="$class_q_c_p_layout.html",tooltip="The abstract base class for layouts."];
  Node9 -> Node10 [id="edge49_Node000010_Node000009",dir="back",color="steelblue1",style="solid",tooltip=" "];
  Node11 -> Node8 [id="edge50_Node000008_Node000011",dir="back",color="darkorchid3",style="dashed",tooltip=" ",label=" mInsetLayout",fontcolor="grey" ];
  Node11 [id="Node000011",label="QCPLayoutInset",height=0.2,width=0.4,color="gray40", fillcolor="white", style="filled",URL="$class_q_c_p_layout_inset.html",tooltip="A layout that places child elements aligned to the border or arbitrarily positioned."];
  Node10 -> Node11 [id="edge51_Node000011_Node000010",dir="back",color="steelblue1",style="solid",tooltip=" "];
  Node12 -> Node7 [id="edge52_Node000007_Node000012",dir="back",color="darkorchid3",style="dashed",tooltip=" ",label=" mDragStartRange\nmRange",fontcolor="grey" ];
  Node12 [id="Node000012",label="QCPRange",height=0.2,width=0.4,color="gray40", fillcolor="white", style="filled",URL="$class_q_c_p_range.html",tooltip="Represents the range an axis is encompassing."];
  Node13 -> Node7 [id="edge53_Node000007_Node000013",dir="back",color="darkorchid3",style="dashed",tooltip=" ",label=" mGrid",fontcolor="grey" ];
  Node13 [id="Node000013",label="QCPGrid",height=0.2,width=0.4,color="gray40", fillcolor="white", style="filled",URL="$class_q_c_p_grid.html",tooltip="Responsible for drawing the grid of a QCPAxis."];
  Node3 -> Node13 [id="edge54_Node000013_Node000003",dir="back",color="steelblue1",style="solid",tooltip=" "];
  Node7 -> Node13 [id="edge55_Node000013_Node000007",dir="back",color="darkorchid3",style="dashed",tooltip=" ",label=" mParentAxis",fontcolor="grey" ];
  Node14 -> Node7 [id="edge56_Node000007_Node000014",dir="back",color="darkorchid3",style="dashed",tooltip=" ",label=" mAxisPainter",fontcolor="grey" ];
  Node14 [id="Node000014",label="QCPAxisPainterPrivate",height=0.2,width=0.4,color="gray40", fillcolor="white", style="filled",URL="$class_q_c_p_axis_painter_private.html",tooltip=" "];
  Node15 -> Node14 [id="edge57_Node000014_Node000015",dir="back",color="darkorchid3",style="dashed",tooltip=" ",label=" lowerEnding\nupperEnding",fontcolor="grey" ];
  Node15 [id="Node000015",label="QCPLineEnding",height=0.2,width=0.4,color="gray40", fillcolor="white", style="filled",URL="$class_q_c_p_line_ending.html",tooltip="Handles the different ending decorations for line-like items."];
  Node5 -> Node14 [id="edge58_Node000014_Node000005",dir="back",color="darkorchid3",style="dashed",tooltip=" ",label=" mParentPlot",fontcolor="grey" ];
  Node16 -> Node5 [id="edge59_Node000005_Node000016",dir="back",color="darkorchid3",style="dashed",tooltip=" ",label=" legend",fontcolor="grey" ];
  Node16 [id="Node000016",label="QCPLegend",height=0.2,width=0.4,color="gray40", fillcolor="white", style="filled",URL="$class_q_c_p_legend.html",tooltip="Manages a legend inside a QCustomPlot."];
  Node17 -> Node16 [id="edge60_Node000016_Node000017",dir="back",color="steelblue1",style="solid",tooltip=" "];
  Node17 [id="Node000017",label="QCPLayoutGrid",height=0.2,width=0.4,color="gray40", fillcolor="white", style="filled",URL="$class_q_c_p_layout_grid.html",tooltip="A layout that arranges child elements in a grid."];
  Node10 -> Node17 [id="edge61_Node000017_Node000010",dir="back",color="steelblue1",style="solid",tooltip=" "];
  Node17 -> Node5 [id="edge62_Node000005_Node000017",dir="back",color="darkorchid3",style="dashed",tooltip=" ",label=" mPlotLayout",fontcolor="grey" ];
  Node18 -> Node5 [id="edge63_Node000005_Node000018",dir="back",color="darkorchid3",style="dashed",tooltip=" ",label=" mCurrentLayer",fontcolor="grey" ];
  Node18 [id="Node000018",label="QCPLayer",height=0.2,width=0.4,color="gray40", fillcolor="white", style="filled",URL="$class_q_c_p_layer.html",tooltip="A layer that may contain objects, to control the rendering order."];
  Node4 -> Node18 [id="edge64_Node000018_Node000004",dir="back",color="steelblue1",style="solid",tooltip=" "];
  Node5 -> Node18 [id="edge65_Node000018_Node000005",dir="back",color="darkorchid3",style="dashed",tooltip=" ",label=" mParentPlot",fontcolor="grey" ];
  Node19 -> Node5 [id="edge66_Node000005_Node000019",dir="back",color="darkorchid3",style="dashed",tooltip=" ",label=" mSelectionRect",fontcolor="grey" ];
  Node19 [id="Node000019",label="QCPSelectionRect",height=0.2,width=0.4,color="gray40", fillcolor="white", style="filled",URL="$class_q_c_p_selection_rect.html",tooltip="Provides rect/rubber-band data selection and range zoom interaction."];
  Node3 -> Node19 [id="edge67_Node000019_Node000003",dir="back",color="steelblue1",style="solid",tooltip=" "];
  Node18 -> Node3 [id="edge68_Node000003_Node000018",dir="back",color="darkorchid3",style="dashed",tooltip=" ",label=" mLayer",fontcolor="grey" ];
  Node20 -> Node1 [id="edge69_Node000001_Node000020",dir="back",color="darkorchid3",style="dashed",tooltip=" ",label=" left\nright",fontcolor="grey" ];
  Node20 [id="Node000020",label="QCPItemPosition",height=0.2,width=0.4,color="gray40", fillcolor="white", style="filled",URL="$class_q_c_p_item_position.html",tooltip="Manages the position of an item."];
  Node21 -> Node20 [id="edge70_Node000020_Node000021",dir="back",color="steelblue1",style="solid",tooltip=" "];
  Node21 [id="Node000021",label="QCPItemAnchor",height=0.2,width=0.4,color="gray40", fillcolor="white", style="filled",URL="$class_q_c_p_item_anchor.html",tooltip="An anchor of an item to which positions can be attached to."];
  Node5 -> Node21 [id="edge71_Node000021_Node000005",dir="back",color="darkorchid3",style="dashed",tooltip=" ",label=" mParentPlot",fontcolor="grey" ];
  Node2 -> Node21 [id="edge72_Node000021_Node000002",dir="back",color="darkorchid3",style="dashed",tooltip=" ",label=" mParentItem",fontcolor="grey" ];
  Node21 -> Node20 [id="edge73_Node000020_Node000021",dir="back",color="darkorchid3",style="dashed",tooltip=" ",label=" mParentAnchorX\nmParentAnchorY",fontcolor="grey" ];
  Node21 -> Node1 [id="edge74_Node000001_Node000021",dir="back",color="darkorchid3",style="dashed",tooltip=" ",label=" center",fontcolor="grey" ];
}
