digraph "QCPCurve"
{
 // LATEX_PDF_SIZE
  bgcolor="transparent";
  edge [fontname=Helvetica,fontsize=10,labelfontname=Helvetica,labelfontsize=10];
  node [fontname=Helvetica,fontsize=10,shape=box,height=0.2,width=0.4];
  Node1 [id="Node000001",label="QCPCurve",height=0.2,width=0.4,color="gray40", fillcolor="grey60", style="filled", fontcolor="black",tooltip="A plottable representing a parametric curve in a plot."];
  Node2 -> Node1 [id="edge6_Node000001_Node000002",dir="back",color="steelblue1",style="solid",tooltip=" "];
  Node2 [id="Node000002",label="QCPAbstractPlottable1D\l\< QCPCurveData \>",height=0.2,width=0.4,color="gray40", fillcolor="white", style="filled",URL="$class_q_c_p_abstract_plottable1_d.html",tooltip=" "];
  Node3 -> Node2 [id="edge7_Node000002_Node000003",dir="back",color="steelblue1",style="solid",tooltip=" "];
  Node3 [id="Node000003",label="QCPAbstractPlottable",height=0.2,width=0.4,color="gray40", fillcolor="white", style="filled",URL="$class_q_c_p_abstract_plottable.html",tooltip="The abstract base class for all data representing objects in a plot."];
  Node4 -> Node3 [id="edge8_Node000003_Node000004",dir="back",color="steelblue1",style="solid",tooltip=" "];
  Node4 [id="Node000004",label="QCPLayerable",height=0.2,width=0.4,color="gray40", fillcolor="white", style="filled",URL="$class_q_c_p_layerable.html",tooltip="Base class for all drawable objects."];
  Node5 -> Node4 [id="edge9_Node000004_Node000005",dir="back",color="steelblue1",style="solid",tooltip=" "];
  Node5 [id="Node000005",label="QObject",height=0.2,width=0.4,color="gray40", fillcolor="white", style="filled",tooltip=" "];
  Node6 -> Node2 [id="edge10_Node000002_Node000006",dir="back",color="steelblue1",style="solid",tooltip=" "];
  Node6 [id="Node000006",label="QCPPlottableInterface1D",height=0.2,width=0.4,color="gray40", fillcolor="white", style="filled",URL="$class_q_c_p_plottable_interface1_d.html",tooltip="Defines an abstract interface for one-dimensional plottables."];
}
