digraph "QCPPaintBufferPixmap"
{
 // LATEX_PDF_SIZE
  bgcolor="transparent";
  edge [fontname=Helvetica,fontsize=10,labelfontname=Helvetica,labelfontsize=10];
  node [fontname=Helvetica,fontsize=10,shape=box,height=0.2,width=0.4];
  Node1 [id="Node000001",label="QCPPaintBufferPixmap",height=0.2,width=0.4,color="gray40", fillcolor="grey60", style="filled", fontcolor="black",tooltip="A paint buffer based on QPixmap, using software raster rendering."];
  Node2 -> Node1 [id="edge2_Node000001_Node000002",dir="back",color="steelblue1",style="solid",tooltip=" "];
  Node2 [id="Node000002",label="QCPAbstractPaintBuffer",height=0.2,width=0.4,color="gray40", fillcolor="white", style="filled",URL="$class_q_c_p_abstract_paint_buffer.html",tooltip="The abstract base class for paint buffers, which define the rendering backend."];
}
