digraph "qcustomplot.cpp"
{
 // LATEX_PDF_SIZE
  bgcolor="transparent";
  edge [fontname=Helvetica,fontsize=10,labelfontname=Helvetica,labelfontsize=10];
  node [fontname=Helvetica,fontsize=10,shape=box,height=0.2,width=0.4];
  Node1 [id="Node000001",label="qcustomplot.cpp",height=0.2,width=0.4,color="gray40", fillcolor="grey60", style="filled", fontcolor="black",tooltip=" "];
  Node1 -> Node2 [id="edge30_Node000001_Node000002",color="steelblue1",style="solid",tooltip=" "];
  Node2 [id="Node000002",label="qcustomplot.h",height=0.2,width=0.4,color="grey40", fillcolor="white", style="filled",URL="$qcustomplot_8h.html",tooltip=" "];
  Node2 -> Node3 [id="edge31_Node000002_Node000003",color="steelblue1",style="solid",tooltip=" "];
  Node3 [id="Node000003",label="QtCore/qglobal.h",height=0.2,width=0.4,color="grey60", fillcolor="#E0E0E0", style="filled",tooltip=" "];
  Node2 -> Node4 [id="edge32_Node000002_Node000004",color="steelblue1",style="solid",tooltip=" "];
  Node4 [id="Node000004",label="QtCore/QObject",height=0.2,width=0.4,color="grey60", fillcolor="#E0E0E0", style="filled",tooltip=" "];
  Node2 -> Node5 [id="edge33_Node000002_Node000005",color="steelblue1",style="solid",tooltip=" "];
  Node5 [id="Node000005",label="QtCore/QPointer",height=0.2,width=0.4,color="grey60", fillcolor="#E0E0E0", style="filled",tooltip=" "];
  Node2 -> Node6 [id="edge34_Node000002_Node000006",color="steelblue1",style="solid",tooltip=" "];
  Node6 [id="Node000006",label="QtCore/QSharedPointer",height=0.2,width=0.4,color="grey60", fillcolor="#E0E0E0", style="filled",tooltip=" "];
  Node2 -> Node7 [id="edge35_Node000002_Node000007",color="steelblue1",style="solid",tooltip=" "];
  Node7 [id="Node000007",label="QtCore/QTimer",height=0.2,width=0.4,color="grey60", fillcolor="#E0E0E0", style="filled",tooltip=" "];
  Node2 -> Node8 [id="edge36_Node000002_Node000008",color="steelblue1",style="solid",tooltip=" "];
  Node8 [id="Node000008",label="QtGui/QPainter",height=0.2,width=0.4,color="grey60", fillcolor="#E0E0E0", style="filled",tooltip=" "];
  Node2 -> Node9 [id="edge37_Node000002_Node000009",color="steelblue1",style="solid",tooltip=" "];
  Node9 [id="Node000009",label="QtGui/QPainterPath",height=0.2,width=0.4,color="grey60", fillcolor="#E0E0E0", style="filled",tooltip=" "];
  Node2 -> Node10 [id="edge38_Node000002_Node000010",color="steelblue1",style="solid",tooltip=" "];
  Node10 [id="Node000010",label="QtGui/QPaintEvent",height=0.2,width=0.4,color="grey60", fillcolor="#E0E0E0", style="filled",tooltip=" "];
  Node2 -> Node11 [id="edge39_Node000002_Node000011",color="steelblue1",style="solid",tooltip=" "];
  Node11 [id="Node000011",label="QtGui/QMouseEvent",height=0.2,width=0.4,color="grey60", fillcolor="#E0E0E0", style="filled",tooltip=" "];
  Node2 -> Node12 [id="edge40_Node000002_Node000012",color="steelblue1",style="solid",tooltip=" "];
  Node12 [id="Node000012",label="QtGui/QWheelEvent",height=0.2,width=0.4,color="grey60", fillcolor="#E0E0E0", style="filled",tooltip=" "];
  Node2 -> Node13 [id="edge41_Node000002_Node000013",color="steelblue1",style="solid",tooltip=" "];
  Node13 [id="Node000013",label="QtGui/QPixmap",height=0.2,width=0.4,color="grey60", fillcolor="#E0E0E0", style="filled",tooltip=" "];
  Node2 -> Node14 [id="edge42_Node000002_Node000014",color="steelblue1",style="solid",tooltip=" "];
  Node14 [id="Node000014",label="QtCore/QVector",height=0.2,width=0.4,color="grey60", fillcolor="#E0E0E0", style="filled",tooltip=" "];
  Node2 -> Node15 [id="edge43_Node000002_Node000015",color="steelblue1",style="solid",tooltip=" "];
  Node15 [id="Node000015",label="QtCore/QString",height=0.2,width=0.4,color="grey60", fillcolor="#E0E0E0", style="filled",tooltip=" "];
  Node2 -> Node16 [id="edge44_Node000002_Node000016",color="steelblue1",style="solid",tooltip=" "];
  Node16 [id="Node000016",label="QtCore/QDateTime",height=0.2,width=0.4,color="grey60", fillcolor="#E0E0E0", style="filled",tooltip=" "];
  Node2 -> Node17 [id="edge45_Node000002_Node000017",color="steelblue1",style="solid",tooltip=" "];
  Node17 [id="Node000017",label="QtCore/QMultiMap",height=0.2,width=0.4,color="grey60", fillcolor="#E0E0E0", style="filled",tooltip=" "];
  Node2 -> Node18 [id="edge46_Node000002_Node000018",color="steelblue1",style="solid",tooltip=" "];
  Node18 [id="Node000018",label="QtCore/QFlags",height=0.2,width=0.4,color="grey60", fillcolor="#E0E0E0", style="filled",tooltip=" "];
  Node2 -> Node19 [id="edge47_Node000002_Node000019",color="steelblue1",style="solid",tooltip=" "];
  Node19 [id="Node000019",label="QtCore/QDebug",height=0.2,width=0.4,color="grey60", fillcolor="#E0E0E0", style="filled",tooltip=" "];
  Node2 -> Node20 [id="edge48_Node000002_Node000020",color="steelblue1",style="solid",tooltip=" "];
  Node20 [id="Node000020",label="QtCore/QStack",height=0.2,width=0.4,color="grey60", fillcolor="#E0E0E0", style="filled",tooltip=" "];
  Node2 -> Node21 [id="edge49_Node000002_Node000021",color="steelblue1",style="solid",tooltip=" "];
  Node21 [id="Node000021",label="QtCore/QCache",height=0.2,width=0.4,color="grey60", fillcolor="#E0E0E0", style="filled",tooltip=" "];
  Node2 -> Node22 [id="edge50_Node000002_Node000022",color="steelblue1",style="solid",tooltip=" "];
  Node22 [id="Node000022",label="QtCore/QMargins",height=0.2,width=0.4,color="grey60", fillcolor="#E0E0E0", style="filled",tooltip=" "];
  Node2 -> Node23 [id="edge51_Node000002_Node000023",color="steelblue1",style="solid",tooltip=" "];
  Node23 [id="Node000023",label="qmath.h",height=0.2,width=0.4,color="grey60", fillcolor="#E0E0E0", style="filled",tooltip=" "];
  Node2 -> Node24 [id="edge52_Node000002_Node000024",color="steelblue1",style="solid",tooltip=" "];
  Node24 [id="Node000024",label="limits",height=0.2,width=0.4,color="grey60", fillcolor="#E0E0E0", style="filled",tooltip=" "];
  Node2 -> Node25 [id="edge53_Node000002_Node000025",color="steelblue1",style="solid",tooltip=" "];
  Node25 [id="Node000025",label="algorithm",height=0.2,width=0.4,color="grey60", fillcolor="#E0E0E0", style="filled",tooltip=" "];
  Node2 -> Node26 [id="edge54_Node000002_Node000026",color="steelblue1",style="solid",tooltip=" "];
  Node26 [id="Node000026",label="QtNumeric",height=0.2,width=0.4,color="grey60", fillcolor="#E0E0E0", style="filled",tooltip=" "];
  Node2 -> Node27 [id="edge55_Node000002_Node000027",color="steelblue1",style="solid",tooltip=" "];
  Node27 [id="Node000027",label="QtWidgets/QWidget",height=0.2,width=0.4,color="grey60", fillcolor="#E0E0E0", style="filled",tooltip=" "];
  Node2 -> Node28 [id="edge56_Node000002_Node000028",color="steelblue1",style="solid",tooltip=" "];
  Node28 [id="Node000028",label="QtPrintSupport/QtPrintSupport",height=0.2,width=0.4,color="grey60", fillcolor="#E0E0E0", style="filled",tooltip=" "];
  Node2 -> Node29 [id="edge57_Node000002_Node000029",color="steelblue1",style="solid",tooltip=" "];
  Node29 [id="Node000029",label="QtCore/QElapsedTimer",height=0.2,width=0.4,color="grey60", fillcolor="#E0E0E0", style="filled",tooltip=" "];
  Node2 -> Node30 [id="edge58_Node000002_Node000030",color="steelblue1",style="solid",tooltip=" "];
  Node30 [id="Node000030",label="QtCore/QTimeZone",height=0.2,width=0.4,color="grey60", fillcolor="#E0E0E0", style="filled",tooltip=" "];
}
