digraph "QCPLayerable"
{
 // LATEX_PDF_SIZE
  bgcolor="transparent";
  edge [fontname=Helvetica,fontsize=10,labelfontname=Helvetica,labelfontsize=10];
  node [fontname=Helvetica,fontsize=10,shape=box,height=0.2,width=0.4];
  rankdir="LR";
  Node1 [id="Node000001",label="QCPLayerable",height=0.2,width=0.4,color="gray40", fillcolor="grey60", style="filled", fontcolor="black",tooltip="Base class for all drawable objects."];
  Node2 -> Node1 [id="edge1_Node000001_Node000002",dir="back",color="steelblue1",style="solid",tooltip=" "];
  Node2 [id="Node000002",label="QObject",height=0.2,width=0.4,color="gray40", fillcolor="white", style="filled",tooltip=" "];
  Node1 -> Node3 [id="edge2_Node000001_Node000003",dir="back",color="steelblue1",style="solid",tooltip=" "];
  Node3 [id="Node000003",label="QCPAbstractItem",height=0.2,width=0.4,color="gray40", fillcolor="white", style="filled",URL="$class_q_c_p_abstract_item.html",tooltip="The abstract base class for all items in a plot."];
  Node3 -> Node4 [id="edge3_Node000003_Node000004",dir="back",color="steelblue1",style="solid",tooltip=" "];
  Node4 [id="Node000004",label="QCPItemBracket",height=0.2,width=0.4,color="gray40", fillcolor="white", style="filled",URL="$class_q_c_p_item_bracket.html",tooltip="A bracket for referencing/highlighting certain parts in the plot."];
  Node3 -> Node5 [id="edge4_Node000003_Node000005",dir="back",color="steelblue1",style="solid",tooltip=" "];
  Node5 [id="Node000005",label="QCPItemCurve",height=0.2,width=0.4,color="gray40", fillcolor="white", style="filled",URL="$class_q_c_p_item_curve.html",tooltip="A curved line from one point to another."];
  Node3 -> Node6 [id="edge5_Node000003_Node000006",dir="back",color="steelblue1",style="solid",tooltip=" "];
  Node6 [id="Node000006",label="QCPItemEllipse",height=0.2,width=0.4,color="gray40", fillcolor="white", style="filled",URL="$class_q_c_p_item_ellipse.html",tooltip="An ellipse."];
  Node3 -> Node7 [id="edge6_Node000003_Node000007",dir="back",color="steelblue1",style="solid",tooltip=" "];
  Node7 [id="Node000007",label="QCPItemLine",height=0.2,width=0.4,color="gray40", fillcolor="white", style="filled",URL="$class_q_c_p_item_line.html",tooltip="A line from one point to another."];
  Node3 -> Node8 [id="edge7_Node000003_Node000008",dir="back",color="steelblue1",style="solid",tooltip=" "];
  Node8 [id="Node000008",label="QCPItemPixmap",height=0.2,width=0.4,color="gray40", fillcolor="white", style="filled",URL="$class_q_c_p_item_pixmap.html",tooltip="An arbitrary pixmap."];
  Node3 -> Node9 [id="edge8_Node000003_Node000009",dir="back",color="steelblue1",style="solid",tooltip=" "];
  Node9 [id="Node000009",label="QCPItemRect",height=0.2,width=0.4,color="gray40", fillcolor="white", style="filled",URL="$class_q_c_p_item_rect.html",tooltip="A rectangle."];
  Node3 -> Node10 [id="edge9_Node000003_Node000010",dir="back",color="steelblue1",style="solid",tooltip=" "];
  Node10 [id="Node000010",label="QCPItemStraightLine",height=0.2,width=0.4,color="gray40", fillcolor="white", style="filled",URL="$class_q_c_p_item_straight_line.html",tooltip="A straight line that spans infinitely in both directions."];
  Node3 -> Node11 [id="edge10_Node000003_Node000011",dir="back",color="steelblue1",style="solid",tooltip=" "];
  Node11 [id="Node000011",label="QCPItemText",height=0.2,width=0.4,color="gray40", fillcolor="white", style="filled",URL="$class_q_c_p_item_text.html",tooltip="A text label."];
  Node3 -> Node12 [id="edge11_Node000003_Node000012",dir="back",color="steelblue1",style="solid",tooltip=" "];
  Node12 [id="Node000012",label="QCPItemTracer",height=0.2,width=0.4,color="gray40", fillcolor="white", style="filled",URL="$class_q_c_p_item_tracer.html",tooltip="Item that sticks to QCPGraph data points."];
  Node1 -> Node13 [id="edge12_Node000001_Node000013",dir="back",color="steelblue1",style="solid",tooltip=" "];
  Node13 [id="Node000013",label="QCPAbstractPlottable",height=0.2,width=0.4,color="gray40", fillcolor="white", style="filled",URL="$class_q_c_p_abstract_plottable.html",tooltip="The abstract base class for all data representing objects in a plot."];
  Node13 -> Node14 [id="edge13_Node000013_Node000014",dir="back",color="steelblue1",style="solid",tooltip=" "];
  Node14 [id="Node000014",label="QCPAbstractPlottable1D\l\< QCPBarsData \>",height=0.2,width=0.4,color="gray40", fillcolor="white", style="filled",URL="$class_q_c_p_abstract_plottable1_d.html",tooltip=" "];
  Node14 -> Node15 [id="edge14_Node000014_Node000015",dir="back",color="steelblue1",style="solid",tooltip=" "];
  Node15 [id="Node000015",label="QCPBars",height=0.2,width=0.4,color="gray40", fillcolor="white", style="filled",URL="$class_q_c_p_bars.html",tooltip="A plottable representing a bar chart in a plot."];
  Node13 -> Node16 [id="edge15_Node000013_Node000016",dir="back",color="steelblue1",style="solid",tooltip=" "];
  Node16 [id="Node000016",label="QCPAbstractPlottable1D\l\< QCPCurveData \>",height=0.2,width=0.4,color="gray40", fillcolor="white", style="filled",URL="$class_q_c_p_abstract_plottable1_d.html",tooltip=" "];
  Node16 -> Node17 [id="edge16_Node000016_Node000017",dir="back",color="steelblue1",style="solid",tooltip=" "];
  Node17 [id="Node000017",label="QCPCurve",height=0.2,width=0.4,color="gray40", fillcolor="white", style="filled",URL="$class_q_c_p_curve.html",tooltip="A plottable representing a parametric curve in a plot."];
  Node13 -> Node18 [id="edge17_Node000013_Node000018",dir="back",color="steelblue1",style="solid",tooltip=" "];
  Node18 [id="Node000018",label="QCPAbstractPlottable1D\l\< QCPFinancialData \>",height=0.2,width=0.4,color="gray40", fillcolor="white", style="filled",URL="$class_q_c_p_abstract_plottable1_d.html",tooltip=" "];
  Node18 -> Node19 [id="edge18_Node000018_Node000019",dir="back",color="steelblue1",style="solid",tooltip=" "];
  Node19 [id="Node000019",label="QCPFinancial",height=0.2,width=0.4,color="gray40", fillcolor="white", style="filled",URL="$class_q_c_p_financial.html",tooltip="A plottable representing a financial stock chart."];
  Node13 -> Node20 [id="edge19_Node000013_Node000020",dir="back",color="steelblue1",style="solid",tooltip=" "];
  Node20 [id="Node000020",label="QCPAbstractPlottable1D\l\< QCPGraphData \>",height=0.2,width=0.4,color="gray40", fillcolor="white", style="filled",URL="$class_q_c_p_abstract_plottable1_d.html",tooltip=" "];
  Node20 -> Node21 [id="edge20_Node000020_Node000021",dir="back",color="steelblue1",style="solid",tooltip=" "];
  Node21 [id="Node000021",label="QCPGraph",height=0.2,width=0.4,color="gray40", fillcolor="white", style="filled",URL="$class_q_c_p_graph.html",tooltip="A plottable representing a graph in a plot."];
  Node13 -> Node22 [id="edge21_Node000013_Node000022",dir="back",color="steelblue1",style="solid",tooltip=" "];
  Node22 [id="Node000022",label="QCPAbstractPlottable1D\l\< QCPStatisticalBoxData \>",height=0.2,width=0.4,color="gray40", fillcolor="white", style="filled",URL="$class_q_c_p_abstract_plottable1_d.html",tooltip=" "];
  Node22 -> Node23 [id="edge22_Node000022_Node000023",dir="back",color="steelblue1",style="solid",tooltip=" "];
  Node23 [id="Node000023",label="QCPStatisticalBox",height=0.2,width=0.4,color="gray40", fillcolor="white", style="filled",URL="$class_q_c_p_statistical_box.html",tooltip="A plottable representing a single statistical box in a plot."];
  Node13 -> Node24 [id="edge23_Node000013_Node000024",dir="back",color="steelblue1",style="solid",tooltip=" "];
  Node24 [id="Node000024",label="QCPAbstractPlottable1D\l\< DataType \>",height=0.2,width=0.4,color="gray40", fillcolor="white", style="filled",URL="$class_q_c_p_abstract_plottable1_d.html",tooltip="A template base class for plottables with one-dimensional data."];
  Node13 -> Node25 [id="edge24_Node000013_Node000025",dir="back",color="steelblue1",style="solid",tooltip=" "];
  Node25 [id="Node000025",label="QCPColorMap",height=0.2,width=0.4,color="gray40", fillcolor="white", style="filled",URL="$class_q_c_p_color_map.html",tooltip="A plottable representing a two-dimensional color map in a plot."];
  Node13 -> Node26 [id="edge25_Node000013_Node000026",dir="back",color="steelblue1",style="solid",tooltip=" "];
  Node26 [id="Node000026",label="QCPErrorBars",height=0.2,width=0.4,color="gray40", fillcolor="white", style="filled",URL="$class_q_c_p_error_bars.html",tooltip="A plottable that adds a set of error bars to other plottables."];
  Node1 -> Node27 [id="edge26_Node000001_Node000027",dir="back",color="steelblue1",style="solid",tooltip=" "];
  Node27 [id="Node000027",label="QCPAxis",height=0.2,width=0.4,color="gray40", fillcolor="white", style="filled",URL="$class_q_c_p_axis.html",tooltip="Manages a single axis inside a QCustomPlot."];
  Node1 -> Node28 [id="edge27_Node000001_Node000028",dir="back",color="steelblue1",style="solid",tooltip=" "];
  Node28 [id="Node000028",label="QCPGrid",height=0.2,width=0.4,color="gray40", fillcolor="white", style="filled",URL="$class_q_c_p_grid.html",tooltip="Responsible for drawing the grid of a QCPAxis."];
  Node1 -> Node29 [id="edge28_Node000001_Node000029",dir="back",color="steelblue1",style="solid",tooltip=" "];
  Node29 [id="Node000029",label="QCPLayoutElement",height=0.2,width=0.4,color="gray40", fillcolor="white", style="filled",URL="$class_q_c_p_layout_element.html",tooltip="The abstract base class for all objects that form the layout system."];
  Node29 -> Node30 [id="edge29_Node000029_Node000030",dir="back",color="steelblue1",style="solid",tooltip=" "];
  Node30 [id="Node000030",label="QCPAbstractLegendItem",height=0.2,width=0.4,color="gray40", fillcolor="white", style="filled",URL="$class_q_c_p_abstract_legend_item.html",tooltip="The abstract base class for all entries in a QCPLegend."];
  Node30 -> Node31 [id="edge30_Node000030_Node000031",dir="back",color="steelblue1",style="solid",tooltip=" "];
  Node31 [id="Node000031",label="QCPPlottableLegendItem",height=0.2,width=0.4,color="gray40", fillcolor="white", style="filled",URL="$class_q_c_p_plottable_legend_item.html",tooltip="A legend item representing a plottable with an icon and the plottable name."];
  Node30 -> Node32 [id="edge31_Node000030_Node000032",dir="back",color="steelblue1",style="solid",tooltip=" "];
  Node32 [id="Node000032",label="QCPPolarLegendItem",height=0.2,width=0.4,color="gray40", fillcolor="white", style="filled",URL="$class_q_c_p_polar_legend_item.html",tooltip="A legend item for polar plots."];
  Node29 -> Node33 [id="edge32_Node000029_Node000033",dir="back",color="steelblue1",style="solid",tooltip=" "];
  Node33 [id="Node000033",label="QCPAxisRect",height=0.2,width=0.4,color="gray40", fillcolor="white", style="filled",URL="$class_q_c_p_axis_rect.html",tooltip="Holds multiple axes and arranges them in a rectangular shape."];
  Node33 -> Node34 [id="edge33_Node000033_Node000034",dir="back",color="steelblue1",style="solid",tooltip=" "];
  Node34 [id="Node000034",label="QCPColorScaleAxisRectPrivate",height=0.2,width=0.4,color="gray40", fillcolor="white", style="filled",URL="$class_q_c_p_color_scale_axis_rect_private.html",tooltip=" "];
  Node29 -> Node35 [id="edge34_Node000029_Node000035",dir="back",color="steelblue1",style="solid",tooltip=" "];
  Node35 [id="Node000035",label="QCPColorScale",height=0.2,width=0.4,color="gray40", fillcolor="white", style="filled",URL="$class_q_c_p_color_scale.html",tooltip="A color scale for use with color coding data such as QCPColorMap."];
  Node29 -> Node36 [id="edge35_Node000029_Node000036",dir="back",color="steelblue1",style="solid",tooltip=" "];
  Node36 [id="Node000036",label="QCPLayout",height=0.2,width=0.4,color="gray40", fillcolor="white", style="filled",URL="$class_q_c_p_layout.html",tooltip="The abstract base class for layouts."];
  Node36 -> Node37 [id="edge36_Node000036_Node000037",dir="back",color="steelblue1",style="solid",tooltip=" "];
  Node37 [id="Node000037",label="QCPLayoutGrid",height=0.2,width=0.4,color="gray40", fillcolor="white", style="filled",URL="$class_q_c_p_layout_grid.html",tooltip="A layout that arranges child elements in a grid."];
  Node37 -> Node38 [id="edge37_Node000037_Node000038",dir="back",color="steelblue1",style="solid",tooltip=" "];
  Node38 [id="Node000038",label="QCPLegend",height=0.2,width=0.4,color="gray40", fillcolor="white", style="filled",URL="$class_q_c_p_legend.html",tooltip="Manages a legend inside a QCustomPlot."];
  Node36 -> Node39 [id="edge38_Node000036_Node000039",dir="back",color="steelblue1",style="solid",tooltip=" "];
  Node39 [id="Node000039",label="QCPLayoutInset",height=0.2,width=0.4,color="gray40", fillcolor="white", style="filled",URL="$class_q_c_p_layout_inset.html",tooltip="A layout that places child elements aligned to the border or arbitrarily positioned."];
  Node29 -> Node40 [id="edge39_Node000029_Node000040",dir="back",color="steelblue1",style="solid",tooltip=" "];
  Node40 [id="Node000040",label="QCPPolarAxisAngular",height=0.2,width=0.4,color="gray40", fillcolor="white", style="filled",URL="$class_q_c_p_polar_axis_angular.html",tooltip="The main container for polar plots, representing the angular axis as a circle."];
  Node29 -> Node41 [id="edge40_Node000029_Node000041",dir="back",color="steelblue1",style="solid",tooltip=" "];
  Node41 [id="Node000041",label="QCPTextElement",height=0.2,width=0.4,color="gray40", fillcolor="white", style="filled",URL="$class_q_c_p_text_element.html",tooltip="A layout element displaying a text."];
  Node1 -> Node42 [id="edge41_Node000001_Node000042",dir="back",color="steelblue1",style="solid",tooltip=" "];
  Node42 [id="Node000042",label="QCPPolarAxisRadial",height=0.2,width=0.4,color="gray40", fillcolor="white", style="filled",URL="$class_q_c_p_polar_axis_radial.html",tooltip="The radial axis inside a radial plot."];
  Node1 -> Node43 [id="edge42_Node000001_Node000043",dir="back",color="steelblue1",style="solid",tooltip=" "];
  Node43 [id="Node000043",label="QCPPolarGraph",height=0.2,width=0.4,color="gray40", fillcolor="white", style="filled",URL="$class_q_c_p_polar_graph.html",tooltip="A radial graph used to display data in polar plots."];
  Node1 -> Node44 [id="edge43_Node000001_Node000044",dir="back",color="steelblue1",style="solid",tooltip=" "];
  Node44 [id="Node000044",label="QCPPolarGrid",height=0.2,width=0.4,color="gray40", fillcolor="white", style="filled",URL="$class_q_c_p_polar_grid.html",tooltip="The grid in both angular and radial dimensions for polar plots."];
  Node1 -> Node45 [id="edge44_Node000001_Node000045",dir="back",color="steelblue1",style="solid",tooltip=" "];
  Node45 [id="Node000045",label="QCPSelectionRect",height=0.2,width=0.4,color="gray40", fillcolor="white", style="filled",URL="$class_q_c_p_selection_rect.html",tooltip="Provides rect/rubber-band data selection and range zoom interaction."];
}
