digraph "QCustomPlot"
{
 // LATEX_PDF_SIZE
  bgcolor="transparent";
  edge [fontname=Helvetica,fontsize=10,labelfontname=Helvetica,labelfontsize=10];
  node [fontname=Helvetica,fontsize=10,shape=box,height=0.2,width=0.4];
  Node1 [id="Node000001",label="QCustomPlot",height=0.2,width=0.4,color="gray40", fillcolor="grey60", style="filled", fontcolor="black",tooltip="The central class of the library. This is the QWidget which displays the plot and interacts with the ..."];
  Node2 -> Node1 [id="edge1_Node000001_Node000002",dir="back",color="steelblue1",style="solid",tooltip=" "];
  Node2 [id="Node000002",label="QWidget",height=0.2,width=0.4,color="gray40", fillcolor="white", style="filled",tooltip=" "];
  Node3 -> Node1 [id="edge2_Node000001_Node000003",dir="back",color="darkorchid3",style="dashed",tooltip=" ",label=" xAxis\nxAxis2\nyAxis\nyAxis2",fontcolor="grey" ];
  Node3 [id="Node000003",label="QCPAxis",height=0.2,width=0.4,color="gray40", fillcolor="white", style="filled",URL="$class_q_c_p_axis.html",tooltip="Manages a single axis inside a QCustomPlot."];
  Node4 -> Node3 [id="edge3_Node000003_Node000004",dir="back",color="steelblue1",style="solid",tooltip=" "];
  Node4 [id="Node000004",label="QCPLayerable",height=0.2,width=0.4,color="gray40", fillcolor="white", style="filled",URL="$class_q_c_p_layerable.html",tooltip="Base class for all drawable objects."];
  Node5 -> Node4 [id="edge4_Node000004_Node000005",dir="back",color="steelblue1",style="solid",tooltip=" "];
  Node5 [id="Node000005",label="QObject",height=0.2,width=0.4,color="gray40", fillcolor="white", style="filled",tooltip=" "];
  Node1 -> Node4 [id="edge5_Node000004_Node000001",dir="back",color="darkorchid3",style="dashed",tooltip=" ",label=" mParentPlot",fontcolor="grey" ];
  Node6 -> Node4 [id="edge6_Node000004_Node000006",dir="back",color="darkorchid3",style="dashed",tooltip=" ",label=" mLayer",fontcolor="grey" ];
  Node6 [id="Node000006",label="QCPLayer",height=0.2,width=0.4,color="gray40", fillcolor="white", style="filled",URL="$class_q_c_p_layer.html",tooltip="A layer that may contain objects, to control the rendering order."];
  Node5 -> Node6 [id="edge7_Node000006_Node000005",dir="back",color="steelblue1",style="solid",tooltip=" "];
  Node1 -> Node6 [id="edge8_Node000006_Node000001",dir="back",color="darkorchid3",style="dashed",tooltip=" ",label=" mParentPlot",fontcolor="grey" ];
  Node7 -> Node3 [id="edge9_Node000003_Node000007",dir="back",color="darkorchid3",style="dashed",tooltip=" ",label=" mAxisRect",fontcolor="grey" ];
  Node7 [id="Node000007",label="QCPAxisRect",height=0.2,width=0.4,color="gray40", fillcolor="white", style="filled",URL="$class_q_c_p_axis_rect.html",tooltip="Holds multiple axes and arranges them in a rectangular shape."];
  Node8 -> Node7 [id="edge10_Node000007_Node000008",dir="back",color="steelblue1",style="solid",tooltip=" "];
  Node8 [id="Node000008",label="QCPLayoutElement",height=0.2,width=0.4,color="gray40", fillcolor="white", style="filled",URL="$class_q_c_p_layout_element.html",tooltip="The abstract base class for all objects that form the layout system."];
  Node4 -> Node8 [id="edge11_Node000008_Node000004",dir="back",color="steelblue1",style="solid",tooltip=" "];
  Node9 -> Node8 [id="edge12_Node000008_Node000009",dir="back",color="darkorchid3",style="dashed",tooltip=" ",label=" mParentLayout",fontcolor="grey" ];
  Node9 [id="Node000009",label="QCPLayout",height=0.2,width=0.4,color="gray40", fillcolor="white", style="filled",URL="$class_q_c_p_layout.html",tooltip="The abstract base class for layouts."];
  Node8 -> Node9 [id="edge13_Node000009_Node000008",dir="back",color="steelblue1",style="solid",tooltip=" "];
  Node10 -> Node7 [id="edge14_Node000007_Node000010",dir="back",color="darkorchid3",style="dashed",tooltip=" ",label=" mInsetLayout",fontcolor="grey" ];
  Node10 [id="Node000010",label="QCPLayoutInset",height=0.2,width=0.4,color="gray40", fillcolor="white", style="filled",URL="$class_q_c_p_layout_inset.html",tooltip="A layout that places child elements aligned to the border or arbitrarily positioned."];
  Node9 -> Node10 [id="edge15_Node000010_Node000009",dir="back",color="steelblue1",style="solid",tooltip=" "];
  Node11 -> Node3 [id="edge16_Node000003_Node000011",dir="back",color="darkorchid3",style="dashed",tooltip=" ",label=" mDragStartRange\nmRange",fontcolor="grey" ];
  Node11 [id="Node000011",label="QCPRange",height=0.2,width=0.4,color="gray40", fillcolor="white", style="filled",URL="$class_q_c_p_range.html",tooltip="Represents the range an axis is encompassing."];
  Node12 -> Node3 [id="edge17_Node000003_Node000012",dir="back",color="darkorchid3",style="dashed",tooltip=" ",label=" mGrid",fontcolor="grey" ];
  Node12 [id="Node000012",label="QCPGrid",height=0.2,width=0.4,color="gray40", fillcolor="white", style="filled",URL="$class_q_c_p_grid.html",tooltip="Responsible for drawing the grid of a QCPAxis."];
  Node4 -> Node12 [id="edge18_Node000012_Node000004",dir="back",color="steelblue1",style="solid",tooltip=" "];
  Node3 -> Node12 [id="edge19_Node000012_Node000003",dir="back",color="darkorchid3",style="dashed",tooltip=" ",label=" mParentAxis",fontcolor="grey" ];
  Node13 -> Node3 [id="edge20_Node000003_Node000013",dir="back",color="darkorchid3",style="dashed",tooltip=" ",label=" mAxisPainter",fontcolor="grey" ];
  Node13 [id="Node000013",label="QCPAxisPainterPrivate",height=0.2,width=0.4,color="gray40", fillcolor="white", style="filled",URL="$class_q_c_p_axis_painter_private.html",tooltip=" "];
  Node14 -> Node13 [id="edge21_Node000013_Node000014",dir="back",color="darkorchid3",style="dashed",tooltip=" ",label=" lowerEnding\nupperEnding",fontcolor="grey" ];
  Node14 [id="Node000014",label="QCPLineEnding",height=0.2,width=0.4,color="gray40", fillcolor="white", style="filled",URL="$class_q_c_p_line_ending.html",tooltip="Handles the different ending decorations for line-like items."];
  Node1 -> Node13 [id="edge22_Node000013_Node000001",dir="back",color="darkorchid3",style="dashed",tooltip=" ",label=" mParentPlot",fontcolor="grey" ];
  Node15 -> Node1 [id="edge23_Node000001_Node000015",dir="back",color="darkorchid3",style="dashed",tooltip=" ",label=" legend",fontcolor="grey" ];
  Node15 [id="Node000015",label="QCPLegend",height=0.2,width=0.4,color="gray40", fillcolor="white", style="filled",URL="$class_q_c_p_legend.html",tooltip="Manages a legend inside a QCustomPlot."];
  Node16 -> Node15 [id="edge24_Node000015_Node000016",dir="back",color="steelblue1",style="solid",tooltip=" "];
  Node16 [id="Node000016",label="QCPLayoutGrid",height=0.2,width=0.4,color="gray40", fillcolor="white", style="filled",URL="$class_q_c_p_layout_grid.html",tooltip="A layout that arranges child elements in a grid."];
  Node9 -> Node16 [id="edge25_Node000016_Node000009",dir="back",color="steelblue1",style="solid",tooltip=" "];
  Node16 -> Node1 [id="edge26_Node000001_Node000016",dir="back",color="darkorchid3",style="dashed",tooltip=" ",label=" mPlotLayout",fontcolor="grey" ];
  Node6 -> Node1 [id="edge27_Node000001_Node000006",dir="back",color="darkorchid3",style="dashed",tooltip=" ",label=" mCurrentLayer",fontcolor="grey" ];
  Node17 -> Node1 [id="edge28_Node000001_Node000017",dir="back",color="darkorchid3",style="dashed",tooltip=" ",label=" mSelectionRect",fontcolor="grey" ];
  Node17 [id="Node000017",label="QCPSelectionRect",height=0.2,width=0.4,color="gray40", fillcolor="white", style="filled",URL="$class_q_c_p_selection_rect.html",tooltip="Provides rect/rubber-band data selection and range zoom interaction."];
  Node4 -> Node17 [id="edge29_Node000017_Node000004",dir="back",color="steelblue1",style="solid",tooltip=" "];
}
