digraph "QCPItemAnchor"
{
 // LATEX_PDF_SIZE
  bgcolor="transparent";
  edge [fontname=Helvetica,fontsize=10,labelfontname=Helvetica,labelfontsize=10];
  node [fontname=Helvetica,fontsize=10,shape=box,height=0.2,width=0.4];
  Node1 [id="Node000001",label="QCPItemAnchor",height=0.2,width=0.4,color="gray40", fillcolor="grey60", style="filled", fontcolor="black",tooltip="An anchor of an item to which positions can be attached to."];
  Node1 -> Node2 [id="edge1_Node000001_Node000002",dir="back",color="steelblue1",style="solid",tooltip=" "];
  Node2 [id="Node000002",label="QCPItemPosition",height=0.2,width=0.4,color="gray40", fillcolor="white", style="filled",URL="$class_q_c_p_item_position.html",tooltip="Manages the position of an item."];
}
